<svg width="22" height="22" viewBox="0 0 22 22" fill="none" xmlns="http://www.w3.org/2000/svg">
<path fill-rule="evenodd" clip-rule="evenodd" d="M5.9097 4.12559C5.75255 3.6821 5.12537 3.6821 4.96822 4.12559L4.60385 5.15392C4.55355 5.29588 4.44187 5.40756 4.29991 5.45786L3.27158 5.82223C2.82809 5.97938 2.82809 6.60656 3.27158 6.76371L4.29991 7.12808C4.44187 7.17838 4.55355 7.29006 4.60385 7.43202L4.96822 8.46035C5.12537 8.90384 5.75255 8.90384 5.9097 8.46035L6.27407 7.43202C6.32437 7.29006 6.43605 7.17838 6.57801 7.12808L7.60634 6.76371C8.04983 6.60656 8.04983 5.97938 7.60634 5.82223L6.57801 5.45786C6.43605 5.40756 6.32437 5.29588 6.27407 5.15392L5.9097 4.12559Z" fill="#B2B1B2"/>
<path fill-rule="evenodd" clip-rule="evenodd" d="M17.244 4.39857C17.1254 4.38632 17.0056 4.40203 16.8941 4.44444C16.7826 4.48684 16.6827 4.55477 16.6022 4.64278C16.5239 4.72836 16.4662 4.83062 16.4334 4.94177L15.597 7.50253H12.4166L11.5801 4.94141C11.5471 4.83033 11.4892 4.72816 11.4109 4.64268C11.3304 4.55493 11.2306 4.48718 11.1193 4.44485C11.0081 4.40251 10.8885 4.38676 10.77 4.39885C10.6519 4.41091 10.5382 4.45034 10.4379 4.51402C10.3024 4.59976 10.1976 4.72635 10.1386 4.87553L10.1386 4.87552L10.1371 4.87944L8.90259 8.10168C9.19368 8.04788 9.49215 8.01509 9.79635 8.00495L10.845 5.2677L11.7462 8.02673L11.831 8.28609C11.8479 8.2915 11.8647 8.29698 11.8815 8.30253H12.1265H15.8871H16.1773L16.2673 8.02673L17.1686 5.26766L18.5042 8.75162L18.5052 8.75436L18.5178 8.78796L18.5178 8.78796L18.5187 8.79032C18.6855 9.22668 18.7059 9.70544 18.5769 10.1544C18.4479 10.6034 18.1764 10.9983 17.8034 11.2795L17.8034 11.2795L17.7987 11.2831L17.7957 11.2854L15.865 12.7305C15.9287 13.0255 15.9706 13.3287 15.9891 13.6381L16.1703 13.5012L16.1717 13.5001L18.278 11.9237L18.2781 11.9237L18.2839 11.9192L18.2875 11.9164C18.7977 11.5308 19.1691 10.9901 19.3458 10.3754C19.5226 9.76009 19.4948 9.10402 19.2665 8.50595L19.266 8.5047L19.2533 8.47073L19.2533 8.47072L19.2522 8.46799L17.8765 4.87936L17.8765 4.87935L17.875 4.87553C17.8161 4.7265 17.7114 4.60002 17.5761 4.51428C17.4759 4.4504 17.3622 4.41078 17.244 4.39857Z" fill="#B2B1B2"/>
<circle cx="9.99995" cy="13.9992" r="4.4" stroke="#B2B1B2" stroke-width="0.8"/>
<line x1="10.0001" y1="12.025" x2="10.0001" y2="14.475" stroke="#B2B1B2" stroke-width="0.8" stroke-linecap="square"/>
<rect x="9.6001" y="15.625" width="0.8" height="0.75" fill="#B2B1B2"/>
</svg>
